%YAML 1.1
%TAG !u! tag:unity3d.com,2011:
--- !u!65 &4510542738053322730
BoxCollider:
  m_ObjectHideFlags: 0
  m_CorrespondingSourceObject: {fileID: 0}
  m_PrefabInstance: {fileID: 0}
  m_PrefabAsset: {fileID: 0}
  m_GameObject: {fileID: 6865864599253294889}
  m_Material: {fileID: 0}
  m_IsTrigger: 0
  m_Enabled: 1
  serializedVersion: 2
  m_Size: {x: 0.020999998, y: 0.019999998, z: 0.019999996}
  m_Center: {x: 0, y: 0, z: 0}
--- !u!1001 &6019371685921235576
PrefabInstance:
  m_ObjectHideFlags: 0
  serializedVersion: 2
  m_Modification:
    m_TransformParent: {fileID: 0}
    m_Modifications:
    - target: {fileID: -8679921383154817045, guid: 7ebb462a2d09b704086a46ecdb65a89c, type: 3}
      propertyPath: m_RootOrder
      value: 0
      objectReference: {fileID: 0}
    - target: {fileID: -8679921383154817045, guid: 7ebb462a2d09b704086a46ecdb65a89c, type: 3}
      propertyPath: m_LocalScale.x
      value: 50
      objectReference: {fileID: 0}
    - target: {fileID: -8679921383154817045, guid: 7ebb462a2d09b704086a46ecdb65a89c, type: 3}
      propertyPath: m_LocalScale.y
      value: 2
      objectReference: {fileID: 0}
    - target: {fileID: -8679921383154817045, guid: 7ebb462a2d09b704086a46ecdb65a89c, type: 3}
      propertyPath: m_LocalScale.z
      value: 50
      objectReference: {fileID: 0}
    - target: {fileID: -8679921383154817045, guid: 7ebb462a2d09b704086a46ecdb65a89c, type: 3}
      propertyPath: m_LocalPosition.x
      value: -0
      objectReference: {fileID: 0}
    - target: {fileID: -8679921383154817045, guid: 7ebb462a2d09b704086a46ecdb65a89c, type: 3}
      propertyPath: m_LocalPosition.y
      value: 1
      objectReference: {fileID: 0}
    - target: {fileID: -8679921383154817045, guid: 7ebb462a2d09b704086a46ecdb65a89c, type: 3}
      propertyPath: m_LocalPosition.z
      value: 0
      objectReference: {fileID: 0}
    - target: {fileID: -8679921383154817045, guid: 7ebb462a2d09b704086a46ecdb65a89c, type: 3}
      propertyPath: m_LocalRotation.w
      value: 0.7071067
      objectReference: {fileID: 0}
    - target: {fileID: -8679921383154817045, guid: 7ebb462a2d09b704086a46ecdb65a89c, type: 3}
      propertyPath: m_LocalRotation.x
      value: -0.7071068
      objectReference: {fileID: 0}
    - target: {fileID: -8679921383154817045, guid: 7ebb462a2d09b704086a46ecdb65a89c, type: 3}
      propertyPath: m_LocalRotation.y
      value: 0
      objectReference: {fileID: 0}
    - target: {fileID: -8679921383154817045, guid: 7ebb462a2d09b704086a46ecdb65a89c, type: 3}
      propertyPath: m_LocalRotation.z
      value: -0
      objectReference: {fileID: 0}
    - target: {fileID: -8679921383154817045, guid: 7ebb462a2d09b704086a46ecdb65a89c, type: 3}
      propertyPath: m_LocalEulerAnglesHint.x
      value: 0
      objectReference: {fileID: 0}
    - target: {fileID: -8679921383154817045, guid: 7ebb462a2d09b704086a46ecdb65a89c, type: 3}
      propertyPath: m_LocalEulerAnglesHint.y
      value: 0
      objectReference: {fileID: 0}
    - target: {fileID: -8679921383154817045, guid: 7ebb462a2d09b704086a46ecdb65a89c, type: 3}
      propertyPath: m_LocalEulerAnglesHint.z
      value: 0
      objectReference: {fileID: 0}
    - target: {fileID: -7511558181221131132, guid: 7ebb462a2d09b704086a46ecdb65a89c, type: 3}
      propertyPath: m_Materials.Array.data[0]
      value: 
      objectReference: {fileID: 2100000, guid: 36b2ceb823437bb45a1992d44e3e59d4, type: 2}
    - target: {fileID: 919132149155446097, guid: 7ebb462a2d09b704086a46ecdb65a89c, type: 3}
      propertyPath: m_Name
      value: Final Area Wall
      objectReference: {fileID: 0}
    m_RemovedComponents: []
  m_SourcePrefab: {fileID: 100100000, guid: 7ebb462a2d09b704086a46ecdb65a89c, type: 3}
--- !u!1 &6865864599253294889 stripped
GameObject:
  m_CorrespondingSourceObject: {fileID: 919132149155446097, guid: 7ebb462a2d09b704086a46ecdb65a89c, type: 3}
  m_PrefabInstance: {fileID: 6019371685921235576}
  m_PrefabAsset: {fileID: 0}
