%YAML 1.1
%TAG !u! tag:unity3d.com,2011:
--- !u!65 &87987232
BoxCollider:
  m_ObjectHideFlags: 0
  m_CorrespondingSourceObject: {fileID: 0}
  m_PrefabInstance: {fileID: 0}
  m_PrefabAsset: {fileID: 0}
  m_GameObject: {fileID: 1925398227339491978}
  m_Material: {fileID: 0}
  m_IsTrigger: 1
  m_Enabled: 1
  serializedVersion: 2
  m_Size: {x: 0.01, y: 0.0071069985, z: 0.00035725645}
  m_Center: {x: -2.3357621e-10, y: -0.000052985386, z: -0.000027968357}
--- !u!114 &87987233
MonoBehaviour:
  m_ObjectHideFlags: 0
  m_CorrespondingSourceObject: {fileID: 0}
  m_PrefabInstance: {fileID: 0}
  m_PrefabAsset: {fileID: 0}
  m_GameObject: {fileID: 1925398227339491978}
  m_Enabled: 1
  m_EditorHideFlags: 0
  m_Script: {fileID: 11500000, guid: f37250e853e39614f8e5c14e63cbb1d3, type: 3}
  m_Name: 
  m_EditorClassIdentifier: 
  itemID: 3
--- !u!1001 &1619337280968820699
PrefabInstance:
  m_ObjectHideFlags: 0
  serializedVersion: 2
  m_Modification:
    m_TransformParent: {fileID: 0}
    m_Modifications:
    - target: {fileID: -8679921383154817045, guid: bcd909194e6d8904a9921a341063fc47, type: 3}
      propertyPath: m_RootOrder
      value: 0
      objectReference: {fileID: 0}
    - target: {fileID: -8679921383154817045, guid: bcd909194e6d8904a9921a341063fc47, type: 3}
      propertyPath: m_LocalScale.x
      value: 20
      objectReference: {fileID: 0}
    - target: {fileID: -8679921383154817045, guid: bcd909194e6d8904a9921a341063fc47, type: 3}
      propertyPath: m_LocalScale.y
      value: 20
      objectReference: {fileID: 0}
    - target: {fileID: -8679921383154817045, guid: bcd909194e6d8904a9921a341063fc47, type: 3}
      propertyPath: m_LocalScale.z
      value: 20
      objectReference: {fileID: 0}
    - target: {fileID: -8679921383154817045, guid: bcd909194e6d8904a9921a341063fc47, type: 3}
      propertyPath: m_LocalPosition.x
      value: 0
      objectReference: {fileID: 0}
    - target: {fileID: -8679921383154817045, guid: bcd909194e6d8904a9921a341063fc47, type: 3}
      propertyPath: m_LocalPosition.y
      value: 0
      objectReference: {fileID: 0}
    - target: {fileID: -8679921383154817045, guid: bcd909194e6d8904a9921a341063fc47, type: 3}
      propertyPath: m_LocalPosition.z
      value: 0
      objectReference: {fileID: 0}
    - target: {fileID: -8679921383154817045, guid: bcd909194e6d8904a9921a341063fc47, type: 3}
      propertyPath: m_LocalRotation.w
      value: 1
      objectReference: {fileID: 0}
    - target: {fileID: -8679921383154817045, guid: bcd909194e6d8904a9921a341063fc47, type: 3}
      propertyPath: m_LocalRotation.x
      value: 0
      objectReference: {fileID: 0}
    - target: {fileID: -8679921383154817045, guid: bcd909194e6d8904a9921a341063fc47, type: 3}
      propertyPath: m_LocalRotation.y
      value: 0
      objectReference: {fileID: 0}
    - target: {fileID: -8679921383154817045, guid: bcd909194e6d8904a9921a341063fc47, type: 3}
      propertyPath: m_LocalRotation.z
      value: 0
      objectReference: {fileID: 0}
    - target: {fileID: -8679921383154817045, guid: bcd909194e6d8904a9921a341063fc47, type: 3}
      propertyPath: m_LocalEulerAnglesHint.x
      value: 0
      objectReference: {fileID: 0}
    - target: {fileID: -8679921383154817045, guid: bcd909194e6d8904a9921a341063fc47, type: 3}
      propertyPath: m_LocalEulerAnglesHint.y
      value: 0
      objectReference: {fileID: 0}
    - target: {fileID: -8679921383154817045, guid: bcd909194e6d8904a9921a341063fc47, type: 3}
      propertyPath: m_LocalEulerAnglesHint.z
      value: 0
      objectReference: {fileID: 0}
    - target: {fileID: -7511558181221131132, guid: bcd909194e6d8904a9921a341063fc47, type: 3}
      propertyPath: m_Materials.Array.data[0]
      value: 
      objectReference: {fileID: 2100000, guid: fa2c11303999b4a4290aa35add57a36f, type: 2}
    - target: {fileID: 919132149155446097, guid: bcd909194e6d8904a9921a341063fc47, type: 3}
      propertyPath: m_Name
      value: Main Key
      objectReference: {fileID: 0}
    m_RemovedComponents: []
  m_SourcePrefab: {fileID: 100100000, guid: bcd909194e6d8904a9921a341063fc47, type: 3}
--- !u!1 &1925398227339491978 stripped
GameObject:
  m_CorrespondingSourceObject: {fileID: 919132149155446097, guid: bcd909194e6d8904a9921a341063fc47, type: 3}
  m_PrefabInstance: {fileID: 1619337280968820699}
  m_PrefabAsset: {fileID: 0}
